sane_init
sane_utsushi_init
sane_exit
sane_utsushi_exit
sane_get_devices
sane_utsushi_get_devices
sane_open
sane_utsushi_open
sane_close
sane_utsushi_close
sane_get_option_descriptor
sane_utsushi_get_option_descriptor
sane_control_option
sane_utsushi_control_option
sane_get_parameters
sane_utsushi_get_parameters
sane_start
sane_utsushi_start
sane_read
sane_utsushi_read
sane_cancel
sane_utsushi_cancel
sane_set_io_mode
sane_utsushi_set_io_mode
sane_get_select_fd
sane_utsushi_get_select_fd
